com\seleium\test\UploadTest.class
com\seleium\test\SearchTest.class
com\seleium\test\TestFlow2.class
com\seleium\test\BaiTap3.class
com\seleium\test\TestFlow3.class
com\seleium\test\Project1.class
com\seleium\test\SignUpTest.class
com\seleium\test\CheckElementNotPresence.class
com\seleium\test\TestFLow1.class
com\seleium\test\DragAndDrop.class
com\seleium\test\checkBoxTest.class
com\seleium\test\CheckElPresenceTest.class
com\seleium\test\DDT.class
com\seleium\test\TestFlow4.class
com\seleium\test\BaiTap.class
com\seleium\test\FirstTest.class
com\seleium\test\NewTest.class
com\seleium\test\AlertTest.class
com\seleium\test\DropDownTest.class
com\seleium\test\SortTest.class
com\seleium\test\WindowHandle.class
